Error: ASSERTION FAIL: 0
File: dtls.c
Line: 3854
assembly.ll line: 6771
State: 472
Stack: 
	#000006771 in dtls_handle_message (=94190512141824, =94190525185344, =94190510091136, =53) at dtls.c:3854
	#100006634 in dtls_handle_read (=94190512141824, =94190510091136, =53, =1) at dtls-fuzz.c:299
	#200028780 in perform_unified_handshake (=94190522284416, =94190522284672) at dtls-fuzz.c:1133
	#300035545 in __klee_posix_wrapped_main (=5, =94190522385152) at dtls-fuzz.c:1226
	#400003366 in __user_main (=5, =94190477159680, =94190477159728) at /home/hooman/Repos/klee-augmented/runtime/POSIX/klee_init_env.c:245
	#500001117 in __uClibc_main (=5, =94190477159680) at libc/misc/internals/__uClibc_main.c:401
	#600001283 in main (=5, =94190477159680)
