Error: ASSERTION FAIL: data_length > DTLS_HS_LENGTH + DTLS_CH_LENGTH
File: dtls.c
Line: 974
assembly.ll line: 13182
State: 15
Stack: 
	#000013182 in dtls_update_parameters (=94137598329856, =94137618727360, =94137607962413, ) at dtls.c:974
	#100009995 in handle_handshake_msg (=94137598329856, =0, =94137611456608, =1, =1, =94137607962413, ) at dtls.c:3516
	#200008601 in handle_handshake (=94137598329856, =0, =94137611456608, =1, =1, =94137607962413, ) at dtls.c:3610
	#300007127 in dtls_handle_message (=94137598329856, =94137611456608, =94137607962400, =67) at dtls.c:3967
	#400006634 in dtls_handle_read (=94137598329856, =94137607962400, =67, =1) at dtls-fuzz.c:299
	#500028654 in perform_unified_handshake (=94137607895424, =94137607895680) at dtls-fuzz.c:1063
	#600035545 in __klee_posix_wrapped_main (=5, =94137607996160) at dtls-fuzz.c:1226
	#700003366 in __user_main (=5, =94137562770688, =94137562770736) at /home/hooman/Repos/klee-augmented/runtime/POSIX/klee_init_env.c:245
	#800001117 in __uClibc_main (=5, =94137562770688) at libc/misc/internals/__uClibc_main.c:401
	#900001283 in main (=5, =94137562770688)
