Error: ASSERTION FAIL: 0
File: dtls.c
Line: 4181
assembly.ll line: 6742
State: 1
Stack: 
	#000006742 in dtls_handle_message (=94424029794304, =94424069659392, =94424066682368, =53) at dtls.c:4181
	#100006591 in dtls_handle_read (=94424029794304, =94424066682368, =53, =1) at dtls-fuzz.c:377
	#200027850 in perform_unified_handshake_nofrag () at dtls-fuzz.c:1118
	#300035931 in __klee_posix_wrapped_main (=5, =94424067415552) at dtls-fuzz.c:1659
	#400003424 in __user_main (=5, =94424053105408, =94424053105456) at /home/hooman/Repos/klee/runtime/POSIX/klee_init_env.c:244
	#500001146 in __uClibc_main (=5, =94424053105408) at libc/misc/internals/__uClibc_main.c:401
	#600001312 in main (=5, =94424053105408)
