Error: ASSERTION FAIL: 0
File: dtls.c
Line: 4175
assembly.ll line: 6717
State: 33
Stack: 
	#000006717 in dtls_handle_message (=94892175398912, =94892200636928, =94892198038912, =53) at dtls.c:4175
	#100006591 in dtls_handle_read (=94892175398912, =94892198038912, =53, =1) at dtls-fuzz.c:377
	#200027675 in perform_unified_handshake_nofrag () at dtls-fuzz.c:1037
	#300035931 in __klee_posix_wrapped_main (=5, =94892198772224) at dtls-fuzz.c:1659
	#400003424 in __user_main (=5, =94892181496576, =94892181496624) at /home/hooman/Repos/klee/runtime/POSIX/klee_init_env.c:244
	#500001146 in __uClibc_main (=5, =94892181496576) at libc/misc/internals/__uClibc_main.c:401
	#600001312 in main (=5, =94892181496576)
