Error: memory error: out of bound pointer
File: ./dtls-numeric.h
Line: 93
assembly.ll line: 8386
State: 3
Stack: 
	#000008386 in dtls_uint16_to_int () at ./dtls-numeric.h:93
	#100010535 in check_server_hello (=94651764420608, =94651736866112, =94651782155853, =50) at dtls.c:2819
	#200009018 in handle_handshake_msg (=94651764420608, =94651736866112, =94651752958208, =0, =8, =94651782155853, =50) at dtls.c:3465
	#300008746 in handle_handshake (=94651764420608, =94651736866112, =94651752958208, =0, =8, =94651782155853, =50) at dtls.c:3957
	#400007073 in dtls_handle_message (=94651764420608, =94651752958208, =94651782155840, =63) at dtls.c:4308
	#500006591 in dtls_handle_read (=94651764420608, =94651782155840, =63, =1) at dtls-fuzz.c:377
	#600027745 in perform_unified_handshake_nofrag () at dtls-fuzz.c:1070
	#700035931 in __klee_posix_wrapped_main (=5, =94651782888960) at dtls-fuzz.c:1659
	#800003424 in __user_main (=5, =94651768505088, =94651768505136) at /home/hooman/Repos/klee/runtime/POSIX/klee_init_env.c:244
	#900001146 in __uClibc_main (=5, =94651768505088) at libc/misc/internals/__uClibc_main.c:401
	#1000001312 in main (=5, =94651768505088)
Info: 
	address: (Add w64 94651782155900
          (ZExt w64 (Read w8 0 SH-sessionID)))
	example: 94651782155903
	range: [94651782155903, 94651782155903]
	next: object at 94651735024640 of size 500
		MO708[500] allocated at global:main.buf
