Error: ASSERTION FAIL: 0
File: dtls.c
Line: 3855
assembly.ll line: 6795
State: 1
Stack: 
	#000006795 in dtls_handle_message (=94631694381056, =94631708559776, =94631706450304, =53) at dtls.c:3855
	#100006658 in dtls_handle_read (=94631694381056, =94631706450304, =53, =1) at dtls-fuzz.c:298
	#200028932 in perform_unified_handshake (=94631705164320, =94631705164576) at dtls-fuzz.c:1184
	#300037117 in __klee_posix_wrapped_main (=5, =94631705206464) at dtls-fuzz.c:1277
	#400003390 in __user_main (=5, =94631663006208, =94631663006256) at /home/hooman/Repos/klee-augmented/runtime/POSIX/klee_init_env.c:245
	#500001141 in __uClibc_main (=5, =94631663006208) at libc/misc/internals/__uClibc_main.c:401
	#600001307 in main (=5, =94631663006208)
