Error: memory error: out of bound pointer
File: ./dtls-numeric.h
Line: 93
assembly.ll line: 8386
State: 55
Stack: 
	#000008386 in dtls_uint16_to_int (=94122010635903) at ./dtls-numeric.h:93
	#100022825 in dtls_check_tls_extension (=94121965346112, =94122010635903, =18446744073709551590, =0) at dtls.c:907
	#200010609 in check_server_hello (=94121973746176, =94121965346112, =94122010635853, ) at dtls.c:2838
	#300009018 in handle_handshake_msg (=94121973746176, =94121965346112, =94121971139712, =0, =8, =94122010635853, ) at dtls.c:3465
	#400008746 in handle_handshake (=94121973746176, =94121965346112, =94121971139712, =0, =8, =94122010635853, ) at dtls.c:3957
	#500007073 in dtls_handle_message (=94121973746176, =94121971139712, =94122010635840, =63) at dtls.c:4308
	#600006591 in dtls_handle_read (=94121973746176, =94122010635840, =63, =1) at dtls-fuzz.c:377
	#700027745 in perform_unified_handshake_nofrag () at dtls-fuzz.c:1070
	#800035931 in __klee_posix_wrapped_main (=5, =94122011368960) at dtls-fuzz.c:1659
	#900003424 in __user_main (=5, =94121997165312, =94121997165360) at /home/hooman/Repos/klee/runtime/POSIX/klee_init_env.c:244
	#1000001146 in __uClibc_main (=5, =94121997165312) at libc/misc/internals/__uClibc_main.c:401
	#1100001312 in main (=5, =94121997165312)
Info: 
	address: 94122010635903
	next: object at 94121963505664 of size 500
		MO708[500] allocated at global:main.buf
