Error: ASSERTION FAIL: 0
File: dtls.c
Line: 3854
assembly.ll line: 6795
State: 9
Stack: 
	#000006795 in dtls_handle_message (=94488527686656, =94488491430256, =94488528485248, =53) at dtls.c:3854
	#100006658 in dtls_handle_read (=94488527686656, =94488528485248, =53, =1) at dtls-fuzz.c:299
	#200028932 in perform_unified_handshake (=94488526957056, =94488526957312) at dtls-fuzz.c:1185
	#300037166 in __klee_posix_wrapped_main (=5, =94488527324720) at dtls-fuzz.c:1278
	#400003390 in __user_main (=5, =94488485040640, =94488485040688) at /home/hooman/Repos/klee-augmented/runtime/POSIX/klee_init_env.c:245
	#500001141 in __uClibc_main (=5, =94488485040640) at libc/misc/internals/__uClibc_main.c:401
	#600001307 in main (=5, =94488485040640)
