Error: memory error: out of bound pointer
File: dtls.c
Line: 280
assembly.ll line: 23894
State: 3
Stack: 
	#000023894 in dtls_get_cookie (=94488527886045, =54, =94488526118424) at dtls.c:280
	#100012836 in dtls_verify_peer (=94488527686656, =0, =94488535280880, =1, =94488527886045, =54) at dtls.c:1636
	#200009849 in handle_handshake_msg (=94488527686656, =0, =94488535280880, =1, =1, =94488527886045, =54) at dtls.c:3447
	#300008625 in handle_handshake (=94488527686656, =0, =94488535280880, =1, =1, =94488527886045, =54) at dtls.c:3610
	#400007151 in dtls_handle_message (=94488527686656, =94488535280880, =94488527886032, =67) at dtls.c:3967
	#500006658 in dtls_handle_read (=94488527686656, =94488527886032, =67, =1) at dtls-fuzz.c:299
	#600028806 in perform_unified_handshake (=94488526957056, =94488526957312) at dtls-fuzz.c:1115
	#700037166 in __klee_posix_wrapped_main (=5, =94488527324720) at dtls-fuzz.c:1278
	#800003390 in __user_main (=5, =94488485040640, =94488485040688) at /home/hooman/Repos/klee-augmented/runtime/POSIX/klee_init_env.c:245
	#900001141 in __uClibc_main (=5, =94488485040640) at libc/misc/internals/__uClibc_main.c:401
	#1000001307 in main (=5, =94488485040640)
Info: 
	address: (Add w64 94488527886092
          (ZExt w64 (Read w8 0 CH0-sessionID)))
	example: 94488527886099
	range: [94488527886099, 94488527886099]
	next: object at 94488483552256 of size 256
		MO360[256] allocated at global:K256
